{
	"company_details" : {
	"page_title" : "Email Newsletter",
	"company_name" : "Starter Template",
	"company_website" : "//jarrang.com",
	"placeholder_color" : "dddddd/ffffff",
	"platform" : "me",
	"---------- PLATFORM ----------" : "cm = Campaign Monitor | mc = MailChimp | me = Maxemail",
	"path" : "snippets/platform-tags/"
	},
	"article1" : {
		"image_name" : "visitingadealership",
		"headline" : "Social distancing measures at dealerships",
		"body_copy" : "We’ve had lots of questions about what it’s like to visit a dealership at the moment, so we spoke to one of our dealers to find out for you. Watch our new video to see what to expect.",
		"cta_button_copy" : "Watch video",
		"link_image" : "https://news.motability.co.uk/motoring/social-distancing-measures-at-dealerships-watch-the-video/",
		"link_headline" : "",
		"link_cta" : ""
	},
	"article2" : {
		"image_name" : "scenicdrives",
		"headline" : "Scenic drives in the UK",
		"body_copy" : "Due to COVID-19 many people are opting for staycations this summer. In this article, Rough Guides look at nine of the best scenic drives in the UK, but don’t forget to check any local restrictions before you&nbsp;travel.",
		"cta_button_copy" : "View picks",
		"link_image" : "https://news.motability.co.uk/places/planning-a-staycation-explore-the-nine-best-uk-scenic-drives/",
		"link_headline" : "",
		"link_cta" : ""
	},
	"article3" : {
		"image_name" : "roughguides",
		"headline" : "New Rough Guide to Accessible Britain",
		"body_copy" : "We’re delighted to announce that the new edition of Rough Guide to Accessible Britain is now available. With over 200 reviews of accessible days out, the Guide supports those with diverse needs to enjoy the best of Britain’s&nbsp;attractions.",
		"cta_button_copy" : "Read more",
		"link_image" : "https://news.motability.co.uk/places/the-uks-best-inclusive-attractions-celebrated-in-new-rough-guide-to-accessible-britain/",
		"link_headline" : "",
		"link_cta" : ""
	},
	"article4" : {
		"image_name" : "dashcams",
		"headline" : "The lowdown on dashcams",
		"body_copy" : "Dashcams are becoming increasingly popular in the UK. Here, we break down what you need to know about dashcams and what to consider if you’re thinking of fitting a dashcam to your Motability Scheme&nbsp;vehicle.",
		"cta_button_copy" : "Find out more ",
		"link_image" : "https://news.motability.co.uk/motoring/dashcams-explained/",
		"link_headline" : "",
		"link_cta" : ""
	},
	"article5" : {
		"image_name" : "callumstory",
		"headline" : "Callum’s story",
		"body_copy" : "16-year-old wheelchair racer Callum lives with his parents and two brothers, in Fife, Scotland. Watch our video in which Callum, and his mum Gail, explain the positive impact joining the Scheme has had on their whole&nbsp;family.",
		"cta_button_copy" : "See his story",
		"link_image" : "https://news.motability.co.uk/inspiration/callums-story-the-motability-scheme-has-impacted-all-of-us/",
		"link_headline" : "",
		"link_cta" : ""
	},
	"article6" : {
		"image_name" : "postlockdowntips",
		"headline" : "Post lockdown maintenance tips",
		"body_copy" : "As lockdown restrictions ease and we’re given the green light to use our cars more, there are a few things you can check to make sure they’re ready to go. Here’s our guide to getting your car back on the road after <br class='mobile-hide'>lockdown.",
		"cta_button_copy" : "Find out more",
		"link_image" : "https://news.motability.co.uk/motoring/post-lockdown-maintenance-tips/",
		"link_headline" : "",
		"link_cta" : ""
	},
	"article7" : {
		"image_name" : "automatics",
		"headline" : "Automatic cars to lease at nil AP",
		"body_copy" : "Richard Aucock of Motoring Research has selected and reviewed five automatic cars that are available to lease on the Motability Scheme with no Advance Payment. This means that if you’d like to lease these cars you simply exchange your higher rate mobility&nbsp;allowance.",
		"cta_button_copy" : "Read reviews",
		"link_image" : "https://news.motability.co.uk/scheme-news/spotlight-on-automatic-cars-with-no-advance-payment/",
		"link_headline" : "",
		"link_cta" : ""
	},
	"article8" : {
		"image_name" : "emmamuldoon",
		"headline" : "Emma Muldoon choosing her next WAV",
		"body_copy" : "In this article, disability blogger, and Motability Scheme customer, Emma Muldoon discusses how she'll choose her next WAV and considers the pros and cons of sitting&nbsp;upfront.",
		"cta_button_copy" : "Learn more",
		"link_image" : "https://news.motability.co.uk/motoring/choosing-my-next-wav/",
		"link_headline" : "",
		"link_cta" : ""
	},
	"article9" : {
		"image_name" : "your-lease",
		"headline" : "Your lease at a glance",
		"body_copy" : "We've summarised a list of key points to help you make the most of your&nbsp;car.",
		"cta_button_copy" : "Read more",
		"link_image" : "https://news.motability.co.uk/scheme-news/your-lease-at-a-glance/",
		"link_headline" : "https://news.motability.co.uk/scheme-news/your-lease-at-a-glance/",
		"link_cta" : "https://news.motability.co.uk/scheme-news/your-lease-at-a-glance/"
	},
	"article10" : {
		"image_name" : "decide",
		"headline" : "10 things to help you decide if the Scheme is for you",
		"body_copy" : "We've highlighted a few things that people often want to talk to us about before deciding if the Scheme is for&nbsp;them.",
		"cta_button_copy" : "Find out more",
		"link_image" : "https://news.motability.co.uk/scheme-news/10-things-to-help-you-decide-if-the-motability-scheme-is-right-for-you/",
		"link_headline" : "https://news.motability.co.uk/scheme-news/10-things-to-help-you-decide-if-the-motability-scheme-is-right-for-you/",
		"link_cta" : "https://news.motability.co.uk/scheme-news/10-things-to-help-you-decide-if-the-motability-scheme-is-right-for-you/"
	},
	"article11" : {
		"image_name" : "scootertowns",
		"headline" : "Accessible scooter towns",
		"body_copy" : "Rough Guides author Emma Bowler has selected some excellent locations that are suitable for travel on your Motability Scheme scooter or powered wheelchair, to give you inspiration for some exciting days out in the UK this&nbsp;summer.",
		"cta_button_copy" : "View picks",
		"link_image" : "https://news.motability.co.uk/places/top-powered-wheelchair-and-scooter-friendly-towns-across-the-uk/",
		"link_headline" : "",
		"link_cta" : ""
	},
	"article12" : {
		"image_name" : "scooterreviews",
		"headline" : "Scooter and powered wheelchair review round up",
		"body_copy" : "Due to COVID-19, journalist Ian Cook hasn’t been able to get out to test drive any new scooters or powered wheelchairs. So, we have a roundup of reviews of some of the most popular models that Ian has previously tested.",
		"cta_button_copy" : "Read reviews",
		"link_image" : "https://news.motability.co.uk/motoring/test-drive-scooter-and-powered-wheelchair-review-round-up/",
		"link_headline" : "",
		"link_cta" : ""
	},
	"article13" : {
		"image_name" : "keepingyourproductsecure",
		"headline" : "Keeping your product secure",
		"body_copy" : "It’s important to keep your product secure when you aren’t using it, to make sure that it remains safe, reduce the risk of it being stolen and ultimately, keep you mobile. Here are our top tips for keeping your product secure.",
		"cta_button_copy" : "Find out more",
		"link_image" : "https://news.motability.co.uk/everyday-tips/keeping-your-scooter-or-powered-wheelchair-secure/",
		"link_headline" : "",
		"link_cta" : ""
	},
	"article14" : {
		"image_name" : "pwsdrivingtips",
		"headline" : "Scooter and powered wheelchair driving tips",
		"body_copy" : "Whether you’re driving a car or a scooter, it’s important to follow the rules of the road and practice road safety. Read this article to find out our top driving tips for scooter and powered wheelchair users.",
		"cta_button_copy" : "See tips",
		"link_image" : "https://news.motability.co.uk/everyday-tips/scooter-and-powered-wheelchair-driving-tips/",
		"link_headline" : "",
		"link_cta" : ""
	},
	"article15" : {
		"image_name" : "postlockdowntips",
		"headline" : "Post lockdown maintenance tips",
		"body_copy" : "As lockdown restrictions ease and we’re given the green light to use our vehicles more, there are a few things you can check to make sure they’re ready to go. Here’s our guide to getting your WAV back on the road after&nbsp;lockdown.",
		"cta_button_copy" : "Find out more",
		"link_image" : "https://news.motability.co.uk/motoring/post-lockdown-maintenance-tips/",
		"link_headline" : "",
		"link_cta" : ""
	},
	"article16" : {
		"image_name" : "visitingadealership",
		"headline" : "Social distancing measures at dealerships",
		"body_copy" : "We’ve had lots of questions about what it’s like to visit a dealership at the moment, so we spoke to one of our dealers to find out for you. Watch our new video to see what to&nbsp;expect.",
		"cta_button_copy" : "Watch video",
		"link_image" : "https://news.motability.co.uk/motoring/social-distancing-measures-at-dealerships-watch-the-video/",
		"link_headline" : "",
		"link_cta" : ""
	},
	"article17" : {
		"image_name" : "",
		"headline" : "",
		"body_copy" : "",
		"cta_button_copy" : "",
		"link_image" : "",
		"link_headline" : "",
		"link_cta" : ""
	},
	"article18" : {
		"image_name" : "",
		"headline" : "",
		"body_copy" : "",
		"cta_button_copy" : "",
		"link_image" : "",
		"link_headline" : "",
		"link_cta" : ""
	}
}