{
	"company_details" : {
	"page_title" : "Email Newsletter",
	"company_name" : "Starter Template",
	"company_website" : "//jarrang.com",
	"placeholder_color" : "dddddd/ffffff",
	"platform" : "me",
	"---------- PLATFORM ----------" : "cm = Campaign Monitor | mc = MailChimp | me = Maxemail",
	"path" : "snippets/platform-tags/"
	},
	"article1" : {
		"image_name" : "fuel",
		"headline" : "Current challenges in the motoring industry",
		"body_copy" : "Richard Aucock from Motoring Research explains the impact that Coronavirus has had on the motoring industry and how these changes have affected the Motability Scheme.",
		"cta_button_copy" : "Find out more",
		"link_image" : "https://news.motability.co.uk/motoring/current-challenges-in-the-motoring-industry/",
		"link_headline" : "",
		"link_cta" : ""
	},
	"article2" : {
		"image_name" : "findandealercar",
		"headline" : "Our new Find a Dealer tool",
		"body_copy" : "We have revamped our Find a Dealer tool to make it easier for you to find the information that you need to make an appointment with your chosen dealer, WAV supplier or adaptations installer.",
		"cta_button_copy" : "Find out more",
		"link_image" : "https://news.motability.co.uk/scheme-news/our-new-find-a-dealer-tool/",
		"link_headline" : "",
		"link_cta" : ""
	},
	"article3" : {
		"image_name" : "findandealerpws",
		"headline" : "Our new Find a Dealer tool",
		"body_copy" : "We have revamped our Find a Dealer tool to make it easier for you to find the information that you need to make an appointment with your chosen scooter or powered wheelchair dealer.",
		"cta_button_copy" : "Find out more",
		"link_image" : "",
		"link_headline" : "",
		"link_cta" : ""
	},
	"article4" : {
		"image_name" : "visitingadealership",
		"headline" : "Social distancing and visiting a dealership ",
		"body_copy" : "Many dealerships are now open but are operating with social distancing measures in place. Here is an outline on what to expect, and how you can prepare, if you are planning to visit a dealership.  ",
		"cta_button_copy" : "Read more",
		"link_image" : "https://news.motability.co.uk/motoring/social-distancing-and-dealership-visits/",
		"link_headline" : "",
		"link_cta" : ""
	},
	"article5" : {
		"image_name" : "friend",
		"headline" : "Making friends as a disabled adult",
		"body_copy" : "Sarah Alexander is a disability and lifestyle blogger, as well as a Motability Scheme customer. In this article, she explains her struggles and experiences with maintaining friendships.",
		"cta_button_copy" : "Read her story",
		"link_image" : "https://news.motability.co.uk/inspiration/making-friends-as-a-disabled-adult/",
		"link_headline" : "",
		"link_cta" : ""
	},
	"article6" : {
		"image_name" : "helencar",
		"headline" : "Helen Dolphin’s guide to driving after lockdown",
		"body_copy" : "Now that lockdown restrictions are easing many people will be driving more; for some it’ll be the first time they’ve driven more than a few miles in months. Here, Helen Dolphin explains how you can prepare for getting back on the road.",
		"cta_button_copy" : "View tips",
		"link_image" : "https://news.motability.co.uk/everyday-tips/helen-dolphins-guide-to-driving-after-lockdown/",
		"link_headline" : "",
		"link_cta" : ""
	},
	"article7" : {
		"image_name" : "prices",
		"headline" : "Latest prices for the Motability Scheme",
		"body_copy" : "Our range of over 2,000 vehicles available has now been updated for July-September 2020. With such a wide variety on offer, we’re sure you’ll be able to find one that’s right for you.",
		"cta_button_copy" : "See prices",
		"link_image" : "https://news.motability.co.uk/scheme-news/latest-prices-for-the-motability-scheme/",
		"link_headline" : "",
		"link_cta" : ""
	},
	"article8" : {
		"image_name" : "diesel",
		"headline" : "Is a diesel vehicle right for you? ",
		"body_copy" : "Around 30% of Motability Scheme customers lease a diesel vehicle. Growing environmental concerns have led people to consider alternative fuel options. Here, we look at who a diesel vehicle would best suit.",
		"cta_button_copy" : "Learn more",
		"link_image" : "https://news.motability.co.uk/uncategorized/is-a-diesel-vehicle-right-for-you/",
		"link_headline" : "",
		"link_cta" : ""
	},
	"article9" : {
		"image_name" : "your-lease",
		"headline" : "Your lease at a&nbsp;glance",
		"body_copy" : "We've summarised a list of key points to help you make the most of your&nbsp;car.",
		"cta_button_copy" : "Read more",
		"link_image" : "https://news.motability.co.uk/scheme-news/your-lease-at-a-glance/",
		"link_headline" : "https://news.motability.co.uk/scheme-news/your-lease-at-a-glance/",
		"link_cta" : "https://news.motability.co.uk/scheme-news/your-lease-at-a-glance/"
	},
	"article10" : {
		"image_name" : "decide",
		"headline" : "10 things to help you decide if the Scheme is for&nbsp;you",
		"body_copy" : "We've highlighted a few things that people often want to talk to us about before deciding if the Scheme is for&nbsp;them.",
		"cta_button_copy" : "Find out more",
		"link_image" : "https://news.motability.co.uk/scheme-news/10-things-to-help-you-decide-if-the-motability-scheme-is-right-for-you/",
		"link_headline" : "https://news.motability.co.uk/scheme-news/10-things-to-help-you-decide-if-the-motability-scheme-is-right-for-you/",
		"link_cta" : "https://news.motability.co.uk/scheme-news/10-things-to-help-you-decide-if-the-motability-scheme-is-right-for-you/"
	},
	"article11" : {
		"image_name" : "servicing",
		"headline" : "Servicing your product",
		"body_copy" : "Regular servicing is included as part of your worry-free package for your product. Dealerships are now starting to reopen with many now booking servicing appointments. Read all about what you can expect when your product is serviced.",
		"cta_button_copy" : "Find out more",
		"link_image" : "https://www.motability.co.uk/your-lease/scooters-and-powered-wheelchairs/servicing-damage-and-repair/",
		"link_headline" : "",
		"link_cta" : ""
	},
	"article12" : {
		"image_name" : "emmamuldoon",
		"headline" : "How to look after your powered wheelchair",
		"body_copy" : "Disability blogger Emma Muldoon is a Scheme customer and full-time powered wheelchair user. In this article, she gives her top tips for maintaining a powered wheelchair to keep it in good working order.",
		"cta_button_copy" : "Read her tips",
		"link_image" : "https://news.motability.co.uk/uncategorized/how-to-look-after-your-powered-wheelchair/",
		"link_headline" : "",
		"link_cta" : ""
	},
	"article13" : {
		"image_name" : "rail",
		"headline" : "Helen Dolphin’s guide to rail travel",
		"body_copy" : "With restrictions being eased, people are getting out and about more and for many this means travelling by rail. Here, Helen Dolphin details what to expect as a disabled passenger if you need to get the train.",
		"cta_button_copy" : "View tips",
		"link_image" : "https://news.motability.co.uk/everyday-tips/helen-dolphins-guide-to-rail-travel-during-coronavirus/",
		"link_headline" : "",
		"link_cta" : ""
	},
	"article14" : {
		"image_name" : "findandealercar",
		"headline" : "Our new Find a Dealer tool",
		"body_copy" : "We have revamped our Find a Dealer tool to make it easier for you to find the information that you need to make an appointment with your chosen dealer.",
		"cta_button_copy" : "Find out more",
		"link_image" : "https://news.motability.co.uk/scheme-news/our-new-find-a-dealer-tool/",
		"link_headline" : "",
		"link_cta" : ""
	},
	"article15" : {
		"image_name" : "annualcheck",
		"headline" : "Your annual vehicle check",
		"body_copy" : "A free annual check is included as part of your worry-free package for the conversion elements of your WAV. The check will be carried out by the WAV supplier at your home, every year. Read more about what to expect here.",
		"cta_button_copy" : "Find out more",
		"link_image" : "https://news.motability.co.uk/scheme-news/your-annual-wav-service-explored/",
		"link_headline" : "",
		"link_cta" : ""
	},
	"article16" : {
		"image_name" : "",
		"headline" : "",
		"body_copy" : "",
		"cta_button_copy" : "",
		"link_image" : "",
		"link_headline" : "",
		"link_cta" : ""
	},
	"article17" : {
		"image_name" : "",
		"headline" : "",
		"body_copy" : "",
		"cta_button_copy" : "",
		"link_image" : "",
		"link_headline" : "",
		"link_cta" : ""
	},
	"article18" : {
		"image_name" : "",
		"headline" : "",
		"body_copy" : "",
		"cta_button_copy" : "",
		"link_image" : "",
		"link_headline" : "",
		"link_cta" : ""
	}
}