{
	"company_details" : {
	"page_title" : "Email Newsletter",
	"company_name" : "Starter Template",
	"company_website" : "//jarrang.com",
	"placeholder_color" : "dddddd/ffffff",
	"platform" : "me",
	"---------- PLATFORM ----------" : "cm = Campaign Monitor | mc = MailChimp | me = Maxemail",
	"path" : "snippets/platform-tags/"
	},
	"article1" : {
		"image_name" : "dashboard",
		"headline" : "The changing look of a dashboard",
		"body_copy" : "The car dashboard is going digital, with traditional dials set to be replaced by info-packed digital displays. Read this article to find out how car makers are bringing dashboards into the modern era.",
		"cta_button_copy" : "Learn more",
		"link_image" : "https://news.motability.co.uk/motoring/the-changing-look-of-a-dashboard/",
		"link_headline" : "https://news.motability.co.uk/motoring/the-changing-look-of-a-dashboard/",
		"link_cta" : "https://news.motability.co.uk/motoring/the-changing-look-of-a-dashboard/"
	},
	"article2" : {
		"image_name" : "atrractions",
		"headline" : "New accessible attractions",
		"body_copy" : "Rough Guides editor, Helen Fanthorpe, uncovers five brilliant, new accessible attractions that you can visit in 2020.",
		"cta_button_copy" : "View list",
		"link_image" : "https://news.motability.co.uk/places/new-accessible-attractions-for-2020/",
		"link_headline" : "https://news.motability.co.uk/places/new-accessible-attractions-for-2020/",
		"link_cta" : "https://news.motability.co.uk/places/new-accessible-attractions-for-2020/"
	},
	"article3" : {
		"image_name" : "cara",
		"headline" : "Driving with Cerebral Palsy",
		"body_copy" : "Journalist Chloe Tear and actress Cara Readle are both Scheme customers, and both have Cerebral Palsy. They discussed their experience with CP and how this affects their ability to drive.",
		"cta_button_copy" : "Read more",
		"link_image" : "https://news.motability.co.uk/inspiration/driving-with-cerebral-palsy/",
		"link_headline" : "https://news.motability.co.uk/inspiration/driving-with-cerebral-palsy/",
		"link_cta" : "https://news.motability.co.uk/inspiration/driving-with-cerebral-palsy/"
	},
	"article4" : {
		"image_name" : "big event",
		"headline" : "What to expect at The Big Event",
		"body_copy" : "The Big Event and regional One Big Days are free to attend and showcase a wide range of vehicles that are available through the Scheme. Read our article to find out what you can look forward to at our summer events.",
		"cta_button_copy" : "Find out more",
		"link_image" : "https://news.motability.co.uk/scheme-news/what-to-expect-at-the-big-event/",
		"link_headline" : "https://news.motability.co.uk/scheme-news/what-to-expect-at-the-big-event/",
		"link_cta" : "https://news.motability.co.uk/scheme-news/what-to-expect-at-the-big-event/"
	},
	"article5" : {
		"image_name" : "sport",
		"headline" : "Accessible sports for winter",
		"body_copy" : "Is your New Year’s resolution to do more exercise? In this article, Ian Cook tries out different accessible sports, which are perfect for the colder months.",
		"cta_button_copy" : "Learn more",
		"link_image" : "https://news.motability.co.uk/inspiration/accessible-indoor-sports-perfect-for-cold-weather/",
		"link_headline" : "https://news.motability.co.uk/inspiration/accessible-indoor-sports-perfect-for-cold-weather/",
		"link_cta" : "https://news.motability.co.uk/inspiration/accessible-indoor-sports-perfect-for-cold-weather/"
	},
	"article6" : {
		"image_name" : "Owen",
		"headline" : "Owen’s story",
		"body_copy" : "Owen has been a Motability Scheme customer since he was 5 years old. Now aged 22, and driving himself, Owen believes that the Scheme offers “excellent peace of mind”. Watch our video to hear all about his experience.",
		"cta_button_copy" : "Watch video",
		"link_image" : "https://news.motability.co.uk/inspiration/owens-story/",
		"link_headline" : "https://news.motability.co.uk/inspiration/owens-story/",
		"link_cta" : "https://news.motability.co.uk/inspiration/owens-story/"
	},
	"article7" : {
		"image_name" : "TGA",
		"headline" : "Breeze S4 scooter video",
		"body_copy" : "The Breeze S4 scooter by TGA is available with a solid canopy – which means riders will be protected whatever the weather. Watch our video to see this scooter in action.",
		"cta_button_copy" : "Watch video ",
		"link_image" : "https://news.motability.co.uk/motoring/new-film-breeze-s4-scooter-with-canopy/",
		"link_headline" : "https://news.motability.co.uk/motoring/new-film-breeze-s4-scooter-with-canopy/",
		"link_cta" : "https://news.motability.co.uk/motoring/new-film-breeze-s4-scooter-with-canopy/"
	},
	"article8" : {
		"image_name" : "app",
		"headline" : "Mobility Assist App",
		"body_copy" : "Did you know we have a free app to help our powered wheelchair and scooter customers in the event of a breakdown? Search for ‘Motability Recovery’ in the App Store to download the app today.",
		"cta_button_copy" : "Learn more",
		"link_image" : "https://www.motability.co.uk/your-lease/scooters-and-powered-wheelchairs/breakdown/",
		"link_headline" : "https://www.motability.co.uk/your-lease/scooters-and-powered-wheelchairs/breakdown/",
		"link_cta" : "https://www.motability.co.uk/your-lease/scooters-and-powered-wheelchairs/breakdown/"
	},
	"article9" : {
		"image_name" : "your lease",
		"headline" : "Your lease at a glance",
		"body_copy" : "We've summarised a list of key points to help you make the most of your car.",
		"cta_button_copy" : "Read more",
		"link_image" : "https://news.motability.co.uk/scheme-news/your-lease-at-a-glance/",
		"link_headline" : "https://news.motability.co.uk/scheme-news/your-lease-at-a-glance/",
		"link_cta" : "https://news.motability.co.uk/scheme-news/your-lease-at-a-glance/"
	},
	"article10" : {
		"image_name" : "decide",
		"headline" : "10 things to help you decide if the Scheme is for you",
		"body_copy" : "We've highlighted a few things that people often want to talk to us about before deciding if the Scheme is for them.",
		"cta_button_copy" : "Find out more",
		"link_image" : "https://news.motability.co.uk/scheme-news/10-things-to-help-you-decide-if-the-motability-scheme-is-right-for-you/",
		"link_headline" : "https://news.motability.co.uk/scheme-news/10-things-to-help-you-decide-if-the-motability-scheme-is-right-for-you/",
		"link_cta" : "https://news.motability.co.uk/scheme-news/10-things-to-help-you-decide-if-the-motability-scheme-is-right-for-you/"
	},
	"article11" : {
		"image_name" : "prices",
		"headline" : "Latest prices for the Motability Scheme",
		"body_copy" : "Our range of over 2,000 vehicles available through the Motability Scheme has now been updated. We offer you a choice of vehicles that are affordable and suitable for your needs. With such a wide variety available, we’re sure you’ll be able to find one that’s right for you.",
		"cta_button_copy" : "See latest prices",
		"link_image" : "https://news.motability.co.uk/scheme-news/latest-prices-for-the-motability-scheme/",
		"link_headline" : "https://news.motability.co.uk/scheme-news/latest-prices-for-the-motability-scheme/",
		"link_cta" : "https://news.motability.co.uk/scheme-news/latest-prices-for-the-motability-scheme/"
	},
	"article12" : {
		"image_name" : "wav-video",
		"headline" : "WAV maintenance tips video",
		"body_copy" : "We offer a free annual vehicle check for your WAV as well as regular servicing. In this video, Brian from Alfred Bekker API explains what you can do in between these services to keep your WAV working at its best.",
		"cta_button_copy" : "Watch video",
		"link_image" : "https://news.motability.co.uk/everyday-tips/wav-maintenance-tips-video/",
		"link_headline" : "https://news.motability.co.uk/everyday-tips/wav-maintenance-tips-video/",
		"link_cta" : "https://news.motability.co.uk/everyday-tips/wav-maintenance-tips-video/"
	}
}