{
	"company_details" : {
	"page_title" : "Email Newsletter",
	"company_name" : "Starter Template",
	"company_website" : "//jarrang.com",
	"placeholder_color" : "dddddd/ffffff",
	"platform" : "me",
	"---------- PLATFORM ----------" : "cm = Campaign Monitor | mc = MailChimp | me = Maxemail",
	"path" : "snippets/platform-tags/"
	},
	"article1" : {
		"image_name" : "festive",
		"headline" : "Accessible festive days out",
		"body_copy" : "The holidays are upon us and there are plenty of ways to find some festive cheer up and down the country. Rough Guides picks the top accessible things to do this Christmas.",
		"cta_button_copy" : "See picks",
		"link_image" : "",
		"link_headline" : "",
		"link_cta" : ""
	},
	"article2" : {
		"image_name" : "prosthetics",
		"headline" : "Evolution of prosthetics",
		"body_copy" : "Disability consultant and quadruple amputee Helen Dolphin looks back at the history of prosthetics, reflecting on her own experience and advances in technologies.  ",
		"cta_button_copy" : "Read more",
		"link_image" : "",
		"link_headline" : "",
		"link_cta" : ""
	},
	"article3" : {
		"image_name" : "TBECAR",
		"headline" : "The Big Event",
		"body_copy" : "Our flagship event is returning to the NEC, Birmingham on Friday 3 and Saturday 4 July. This is the biggest event of the year, with the largest number of vehicles and advisors on display.",
		"cta_button_copy" : "Find out more",
		"link_image" : "https://www.motability.co.uk/news/one-big-day/",
		"link_headline" : "",
		"link_cta" : ""
	},
	"article4" : {
		"image_name" : "TBEWAV",
		"headline" : "The Big Event",
		"body_copy" : "Our flagship event is returning to the NEC, Birmingham on Friday 3 and Saturday 4 July. This is the biggest event of the year, with the largest number of vehicles and advisors on display.",
		"cta_button_copy" : "Find out more",
		"link_image" : "https://www.motability.co.uk/news/one-big-day/",
		"link_headline" : "",
		"link_cta" : ""
	},
	"article5" : {
		"image_name" : "your-lease",
		"headline" : "Your lease at a glance",
		"body_copy" : "We've summarised a list of key points to help you make the most of your car.",
		"cta_button_copy" : "Read more",
		"link_image" : "",
		"link_headline" : "",
		"link_cta" : ""
	},
	"article6" : {
		"image_name" : "decide",
		"headline" : "10 things to help you decide if the Scheme is for you",
		"body_copy" : "We've highlighted a few things that people often want to talk to us about before deciding if the Scheme is for them.",
		"cta_button_copy" : "Find out more",
		"link_image" : "https://news.motability.co.uk/scheme-news/10-things-to-help-you-decide-if-the-motability-scheme-is-right-for-you/",
		"link_headline" : "",
		"link_cta" : ""
	},
	"article7" : {
		"image_name" : "TBEPWS",
		"headline" : "The Big Event",
		"body_copy" : "Our flagship event is returning to the NEC, Birmingham on Friday 3 and Saturday 4 July. This is the biggest event of the year, with the largest number of vehicles and advisors on display. ",
		"cta_button_copy" : "Find out more",
		"link_image" : "https://www.motability.co.uk/news/one-big-day/",
		"link_headline" : "",
		"link_cta" : ""
	},
	"article8" : {
		"image_name" : "insurance",
		"headline" : "Your insurance",
		"body_copy" : "One of the benefits of leasing your vehicle through the Scheme is that you’re covered by RSAM insurance. This article explains what to do should you have an accident or incident.",
		"cta_button_copy" : "Learn more",
		"link_image" : "https://news.motability.co.uk/scheme-news/how-your-car-insurance-works/",
		"link_headline" : "",
		"link_cta" : ""
	},
	"article9" : {
		"image_name" : "markets",
		"headline" : "Accessible Christmas markets",
		"body_copy" : "Rough Guides have given their run-down of the best Christmas markets to visit this festive season, in the UK and beyond.",
		"cta_button_copy" : "View list",
		"link_image" : "",
		"link_headline" : "",
		"link_cta" : ""
	},
	"article10" : {
		"image_name" : "dealershipvisit",
		"headline" : "Visiting a car dealership",
		"body_copy" : "“You’re not a salesman... you’re there to support and help”. Watch our video to see what it’s like to visit a Motability Scheme specialist at a car dealership.",
		"cta_button_copy" : "Watch video",
		"link_image" : "",
		"link_headline" : "",
		"link_cta" : ""
	},
	"article11" : {
		"image_name" : "stayingwarm",
		"headline" : "Sarah Alexander’s top tips for staying warm",
		"body_copy" : "Disability and lifestyle blogger Sarah Alexander reveals how she stays warm in her wheelchair during the colder months.",
		"cta_button_copy" : "See tips",
		"link_image" : "https://news.motability.co.uk/everyday-tips/sarah-alexanders-top-10-tips-for-staying-warm/",
		"link_headline" : "",
		"link_cta" : ""
	},
	"article12" : {
		"image_name" : "Q700",
		"headline" : "‘It tracks amazingly over uneven surfaces’",
		"body_copy" : "Watch our video to learn more about the new Q700 M power chair by Sunrise Medical Quickie Wheelchairs. This powered wheelchair can climb and descend kerbs of up to five inches and the seating system can be adjusted infinitely, with a lift and tilt function.",
		"cta_button_copy" : "Watch video",
		"link_image" : "",
		"link_headline" : "",
		"link_cta" : ""
	}
}