{
	"company_details" : {
	"page_title" : "Email Newsletter",
	"company_name" : "Starter Template",
	"company_website" : "//jarrang.com",
	"placeholder_color" : "dddddd/ffffff",
	"platform" : "me",
	"---------- PLATFORM ----------" : "cm = Campaign Monitor | mc = MailChimp | me = Maxemail",
	"path" : "snippets/platform-tags/"
	},
	"article1" : {
		"image_name" : "carshare",
		"headline" : "Watch the Motability Scheme car share",
		"body_copy" : "Mike listens to Magic, while David is more of a Radio 4 man. In this video, two Scheme customers meet for the first time for a drive and to discuss the Scheme.",
		"cta_button_copy" : "Watch clip",
		"link_image" : "https://news.motability.co.uk/inspiration/watch-the-motability-scheme-car-share/",
		"link_headline" : "https://news.motability.co.uk/inspiration/watch-the-motability-scheme-car-share/",
		"link_cta" : "https://news.motability.co.uk/inspiration/watch-the-motability-scheme-car-share/"
	},
	"article2" : {
		"image_name" : "reversecamera",
		"headline" : "Spotlight on reverse car cameras",
		"body_copy" : "Reversing cameras are becoming more popular amongst UK drivers, as cars increasingly have them as a standard feature. Read more about what they are and how they can help drivers.",
		"cta_button_copy" : "Find out more ",
		"link_image" : "https://news.motability.co.uk/motoring/motability-spotlight-on-reverse-car-cameras/",
		"link_headline" : "https://news.motability.co.uk/motoring/motability-spotlight-on-reverse-car-cameras/",
		"link_cta" : "https://news.motability.co.uk/motoring/motability-spotlight-on-reverse-car-cameras/"
	},
	"article3" : {
		"image_name" : "rainydays",
		"headline" : "Five accessible spots for rainy days",
		"body_copy" : "Rough Guides writer Emma Field has found five accessible activities to keep you entertained and dry on those inevitable rainy days!",
		"cta_button_copy" : "View list ",
		"link_image" : "https://news.motability.co.uk/places/five-accessible-spots-for-rainy-days/",
		"link_headline" : "https://news.motability.co.uk/places/five-accessible-spots-for-rainy-days/",
		"link_cta" : "https://news.motability.co.uk/places/five-accessible-spots-for-rainy-days/"
	},
	"article4" : {
		"image_name" : "pettherapy",
		"headline" : "Pet therapy and mental health",
		"body_copy" : "Motability Scheme customer Sarah Alexander is a disability and lifestyle blogger. In this article, Sarah discusses the importance of her dogs and how they help her mental health.",
		"cta_button_copy" : "Read more",
		"link_image" : "https://news.motability.co.uk/inspiration/pet-therapy-and-mental-health/",
		"link_headline" : "https://news.motability.co.uk/inspiration/pet-therapy-and-mental-health/",
		"link_cta" : "https://news.motability.co.uk/inspiration/pet-therapy-and-mental-health/"
	},
	"article5" : {
		"image_name" : "speakersessions",
		"headline" : "Expert speaker sessions at The Big Event 2020",
		"body_copy" : "Back by popular demand! Following great feedback at last year’s The Big Event, the expert speaker sessions are returning with a refreshed line-up and new topics for advice.",
		"cta_button_copy" : "Find out more",
		"link_image" : "https://news.motability.co.uk/scheme-news/expert-speakers-announced-for-the-big-event-in-birmingham/",
		"link_headline" : "https://news.motability.co.uk/scheme-news/expert-speakers-announced-for-the-big-event-in-birmingham/",
		"link_cta" : "https://news.motability.co.uk/scheme-news/expert-speakers-announced-for-the-big-event-in-birmingham/"
	},
	"article6" : {
		"image_name" : "handcontrols",
		"headline" : "See different push/pull hand controls in action",
		"body_copy" : "The Scheme offers a range of adaptations that may make it easier to drive a standard car. Watch our videos to see our most popular push/pull hand controls in action.",
		"cta_button_copy" : "Learn more",
		"link_image" : "https://news.motability.co.uk/motoring/watch-push-pull-hand-controls-in-action/",
		"link_headline" : "https://news.motability.co.uk/motoring/watch-push-pull-hand-controls-in-action/",
		"link_cta" : "https://news.motability.co.uk/motoring/watch-push-pull-hand-controls-in-action/"
	},
	"article7" : {
		"image_name" : "youtube",
		"headline" : "Did you know we have a YouTube channel?",
		"body_copy" : "Subscribe to our YouTube channel to watch the newest Scheme videos, including customer stories, product reviews and the latest Ask Helen clips.",
		"cta_button_copy" : "See videos",
		"link_image" : "https://www.youtube.com/user/MotabilityUK/videos",
		"link_headline" : "https://www.youtube.com/user/MotabilityUK/videos",
		"link_cta" : "https://www.youtube.com/user/MotabilityUK/videos"
	},
	"article8" : {
		"image_name" : "motabilityassist",
		"headline" : "Motability Assist",
		"body_copy" : "Motability Scheme customer Ms Hull tells us what happened when her scooter broke down, and how Motability Assist helped her.",
		"cta_button_copy" : "Find out more",
		"link_image" : "https://news.motability.co.uk/scheme-news/motability-assist-the-breakdown-service-for-scooter-and-powered-wheelchair-customers/",
		"link_headline" : "https://news.motability.co.uk/scheme-news/motability-assist-the-breakdown-service-for-scooter-and-powered-wheelchair-customers/",
		"link_cta" : "https://news.motability.co.uk/scheme-news/motability-assist-the-breakdown-service-for-scooter-and-powered-wheelchair-customers/"
	},
	"article9" : {
		"image_name" : "your-lease",
		"headline" : "Your lease at a glance",
		"body_copy" : "We've summarised a list of key points to help you make the most of your car.",
		"cta_button_copy" : "Read more",
		"link_image" : "https://news.motability.co.uk/scheme-news/your-lease-at-a-glance/",
		"link_headline" : "https://news.motability.co.uk/scheme-news/your-lease-at-a-glance/",
		"link_cta" : "https://news.motability.co.uk/scheme-news/your-lease-at-a-glance/"
	},
	"article10" : {
		"image_name" : "decide",
		"headline" : "10 things to help you decide if the Scheme is for you",
		"body_copy" : "We've highlighted a few things that people often want to talk to us about before deciding if the Scheme is for them.",
		"cta_button_copy" : "Find out more",
		"link_image" : "https://news.motability.co.uk/scheme-news/10-things-to-help-you-decide-if-the-motability-scheme-is-right-for-you/",
		"link_headline" : "https://news.motability.co.uk/scheme-news/10-things-to-help-you-decide-if-the-motability-scheme-is-right-for-you/",
		"link_cta" : "https://news.motability.co.uk/scheme-news/10-things-to-help-you-decide-if-the-motability-scheme-is-right-for-you/"
	},
	"article11" : {
		"image_name" : "sevenseats",
		"headline" : "Cars with seven seats or more",
		"body_copy" : "Got a big family? Richard Aucock of Motoring Research has selected and reviewed cars with at least seven seats that are available to lease on the Scheme, with Advance Payment starting from just £349.",
		"cta_button_copy" : "Read reviews",
		"link_image" : "https://news.motability.co.uk/motoring/spotlight-on-cars-with-seven-seats-or-more/",
		"link_headline" : "https://news.motability.co.uk/motoring/spotlight-on-cars-with-seven-seats-or-more/",
		"link_cta" : "https://news.motability.co.uk/motoring/spotlight-on-cars-with-seven-seats-or-more/"
	},
	"article12" : {
		"image_name" : "handcontrols",
		"headline" : "See different push/pull hand controls in action",
		"body_copy" : "The Scheme offers a range of adaptations that may make it easier to drive a car or WAV. Watch our videos to see our most popular push/pull hand controls in action.",
		"cta_button_copy" : "Learn more",
		"link_image" : "https://news.motability.co.uk/motoring/watch-push-pull-hand-controls-in-action/",
		"link_headline" : "https://news.motability.co.uk/motoring/watch-push-pull-hand-controls-in-action/",
		"link_cta" : "https://news.motability.co.uk/motoring/watch-push-pull-hand-controls-in-action/"
	},
	"article13" : {
		"image_name" : "accessible-places",
		"headline" : "What do you want from accessible places?",
		"body_copy" : "We’re keen to know how you plan a fun day out, what you look for in an accessible venue and what you find most helpful. Click here to complete a short survey.",
		"cta_button_copy" : "Complete survey",
		"link_image" : "https://www.surveymonkey.co.uk/r/YFSNKGS",
		"link_headline" : "https://www.surveymonkey.co.uk/r/YFSNKGS",
		"link_cta" : "https://www.surveymonkey.co.uk/r/YFSNKGS"
	},
	"article14" : {
		"image_name" : "handcontrols",
		"headline" : "Options to make driving easier",
		"body_copy" : "If you have difficulty driving a car, a push/pull hand control may be helpful. We have lots of options, most with no cost at the start of your lease. Watch our videos to see them in action.",
		"cta_button_copy" : "Learn more",
		"link_image" : "https://news.motability.co.uk/motoring/watch-push-pull-hand-controls-in-action/",
		"link_headline" : "https://news.motability.co.uk/motoring/watch-push-pull-hand-controls-in-action/",
		"link_cta" : "https://news.motability.co.uk/motoring/watch-push-pull-hand-controls-in-action/"
	},
	"article15" : {
		"image_name" : "",
		"headline" : "",
		"body_copy" : "",
		"cta_button_copy" : "",
		"link_image" : "",
		"link_headline" : "",
		"link_cta" : ""
	},
	"article16" : {
		"image_name" : "",
		"headline" : "",
		"body_copy" : "",
		"cta_button_copy" : "",
		"link_image" : "",
		"link_headline" : "",
		"link_cta" : ""
	},
	"article17" : {
		"image_name" : "",
		"headline" : "",
		"body_copy" : "",
		"cta_button_copy" : "",
		"link_image" : "",
		"link_headline" : "",
		"link_cta" : ""
	},
	"article18" : {
		"image_name" : "",
		"headline" : "",
		"body_copy" : "",
		"cta_button_copy" : "",
		"link_image" : "",
		"link_headline" : "",
		"link_cta" : ""
	}
}